Data Analysis Report
…
To identify possibly rushed responses, we inspect the variation of ratings and compare those to the how quickly participants responded.

The variation looks fine, nobody just clicked the same point of the scale repeatedly. One participant was extremely fast, spending about 1.5 seconds per rating, possibly hinting at randomly clicking through.

# lowest variation of the ratings
working_file %>% 
  group_by(pp) %>% 
  summarize(
    mean = (mean(rating, na.rm = TRUE)),
    sd = sd(rating, na.rm = TRUE)
  ) %>% 
  arrange(sd)

## # A tibble: 174 x 3
##    pp      mean    sd
##    <fct>  <dbl> <dbl>
##  1 pp_139  42.1  10.1
##  2 pp_47   53.2  12.2
##  3 pp_137  58.1  14.3
##  4 pp_49   82.8  14.6
##  5 pp_141  53.6  14.8
##  6 pp_140  56.4  15.4
##  7 pp_160  59.3  15.8
##  8 pp_112  55.1  16.1
##  9 pp_125  62.5  16.2
## 10 pp_30   55.3  16.4
## # ... with 164 more rows
…
# compare with raw mean time per page
working_file %>% 
  group_by(pp) %>% 
  slice(1) %>% 
  arrange(desc(rsi)) %>%
  select(pp, rsi) %>% 
  left_join(., 
            time_means,
            by = "pp"
  )

## # A tibble: 174 x 3
## # Groups:   pp [174]
##    pp       rsi time_mean
##    <fct>  <dbl>     <dbl>
##  1 pp_81   2.75      1.54
##  2 pp_116  2.18      4.02
##  3 pp_69   2.13      2.40
##  4 pp_82   2.12      2.65
##  5 pp_54   2.00      2.92
##  6 pp_118  1.97      5.24
##  7 pp_64   1.94      3.23
##  8 pp_125  1.77      3.71
##  9 pp_128  1.75      3.66
## 10 pp_137  1.74      3.39
## # ... with 164 more rows
…
